-------------------------------------------------------------------------------
Test set: com.springsource.roo.fitnesswebsite.domain.ArrangementOfPlanIntegrationTest
-------------------------------------------------------------------------------
Tests run: 9, Failures: 0, Errors: 0, Skipped: 0, Time elapsed: 4.467 sec
